{
  "categories": [
    {
      "id": "d604f253-34b2-4f0d-ac18-251ad9ea91f4",
      "name": "Shortcuts",
      "shortcuts": [
        {
          "bodyContent": "{\n  \"query\":\"mutation upsert_entries {\\n\\twebsliver_upsert_entries(\\n\\t\\targs: {\\n\\t\\t\\tentries: [\\n\\t\\t\\t\\t{\\n\\t\\t\\t\\t\\ttitle: \\\"{{7e5bfe2c-adf2-4be2-b618-cd7f4f584562}}\\\"\\n\\t\\t\\t\\t\\tlocation: \\\"{{507c3825-0513-4e9c-a811-904ea1ed9657}}\\\"\\n\\t\\t\\t\\t\\tworkspace_id: \\\"{{aa9ee689-0afe-4ef4-8bab-95c560bc6571}}\\\"\\n\\t\\t\\t\\t\\ttags: [ \\\"shared from mobile\\\", \\\"{{1c6dd5e1-98dd-4aa1-a0d8-9aab4df8d927}}\\\"]\\n\\t\\t\\t\\t}\\n\\t\\t\\t],\\n\\t\\t\\tworkspace_id: \\\"{{aa9ee689-0afe-4ef4-8bab-95c560bc6571}}\\\"\\n\\t\\t}\\n\\t) {\\n\\t\\tuid,\\n\\t\\ttitle,\\n\\t\\tlocation,\\n\\t\\tcreated_at,\\n\\t\\tupdated_at,\\n\\t\\tworkspace_id,\\n\\t\\ttags\\n\\t}\\n}\\n\",\n  \"operationName\":\"upsert_entries_from_mobile\"\n}",
          "contentType": "application/json",
          "description": "saves an entry with the shared data",
          "headers": [
            {
              "id": "d5e26d6a-586e-4504-8a27-2cc03296b789",
              "key": "x-hasura-admin-secret",
              "value": "{{9a6ab818-ae3c-4fcf-9031-076db995d7a0}}"
            },
            {
              "id": "6b0ef3a9-a524-4058-922f-d7f1867ad5ab",
              "key": "x-hasura-role",
              "value": "user"
            },
            {
              "id": "af1ed8a2-bed7-4be9-bcd7-c88d44e3a96e",
              "key": "x-hasura-user-id",
              "value": "{{38c282e7-7728-4662-833b-54cc6c55381d}}"
            }
          ],
          "iconName": "flat_grey_ribbon",
          "id": "fc3cb7b8-fcd8-4fd8-b902-d5f3bb967f1f",
          "launcherShortcut": true,
          "method": "POST",
          "name": "Share to WebSliver",
          "quickSettingsTileShortcut": true,
          "requireConfirmation": true,
          "responseHandling": {
            "successMessage": "WebSliver entry saved.",
            "successOutput": "message",
            "uiType": "dialog"
          },
          "timeout": 0,
          "url": "https://{{240026ff-1278-4b0b-b7d3-a4cc371d33df}}/v1/graphql"
        }
      ]
    }
  ],
  "variables": [
    {
      "flags": 4,
      "id": "7e5bfe2c-adf2-4be2-b618-cd7f4f584562",
      "jsonEncode": true,
      "key": "share_title",
      "type": "text"
    },
    {
      "flags": 1,
      "id": "507c3825-0513-4e9c-a811-904ea1ed9657",
      "jsonEncode": true,
      "key": "share_url",
      "type": "text"
    },
    {
      "data": "{\"select\":{\"multi_select\":\"true\",\"separator\":\"\\\\\\\",\\\\\\\"\"}}",
      "id": "1c6dd5e1-98dd-4aa1-a0d8-9aab4df8d927",
      "key": "tags",
      "options": [
        {
          "id": "00822a50-148c-4a9f-82ce-2ae0d86c88f5",
          "label": "a tag",
          "value": "a tag"
        }
      ],
      "type": "select"
    },
    {
      "id": "aa9ee689-0afe-4ef4-8bab-95c560bc6571",
      "jsonEncode": true,
      "key": "workspace",
      "options": [
        {
          "id": "9f9aab15-fca6-4c06-ba27-184ed8ba97c7",
          "label": "a workspace",
          "value": "e303e5cb-cc9c-4e34-a9e5-d07cbe576195"
        }
      ],
      "type": "select"
    },
    {
      "id": "9a6ab818-ae3c-4fcf-9031-076db995d7a0",
      "key": "ws_api_key",
      "value": "the api key"
    },
    {
      "id": "38c282e7-7728-4662-833b-54cc6c55381d",
      "key": "ws_user_id",
      "value": "the user id"
    },
    {
      "id": "240026ff-1278-4b0b-b7d3-a4cc371d33df",
      "key": "ws_host",
      "value": "api-demo-websliver.dystopianside.org"
    }
  ],
  "version": 51
}
